<?xml version="1.0" encoding="UTF-8"?>
<!DOCTYPE svg PUBLIC "-//W3C//DTD SVG 1.1//EN" "http://www.w3.org/Graphics/SVG/1.1/DTD/svg11.dtd">
<svg version="1.2" width="168.38mm" height="38.26mm" viewBox="663 525 16838 3826" preserveAspectRatio="xMidYMid" fill-rule="evenodd" stroke-width="28.222" stroke-linejoin="round" xmlns="http://www.w3.org/2000/svg" xmlns:ooo="http://xml.openoffice.org/svg/export" xmlns:xlink="http://www.w3.org/1999/xlink" xmlns:presentation="http://sun.com/xmlns/staroffice/presentation" xmlns:smil="http://www.w3.org/2001/SMIL20/" xmlns:anim="urn:oasis:names:tc:opendocument:xmlns:animation:1.0" xml:space="preserve">
 <defs class="ClipPathGroup">
  <clipPath id="presentation_clip_path" clipPathUnits="userSpaceOnUse">
   <rect x="663" y="525" width="16838" height="3826"/>
  </clipPath>
  <clipPath id="presentation_clip_path_shrink" clipPathUnits="userSpaceOnUse">
   <rect x="679" y="528" width="16805" height="3819"/>
  </clipPath>
 </defs>
 <defs>
  <font id="EmbeddedFont_1" horiz-adv-x="2048">
   <font-face font-family="Courier New embedded" units-per-em="2048" font-weight="normal" font-style="normal" ascent="1693" descent="609"/>
   <missing-glyph horiz-adv-x="2048" d="M 0,0 L 2047,0 2047,2047 0,2047 0,0 Z"/>
   <glyph unicode="⊥" horiz-adv-x="1086" d="M 667,1234 L 562,1234 506,1997 724,1997 667,1234 Z M 504,934 L 504,1086 719,1086 719,934 504,934 Z"/>
   <glyph unicode="s" horiz-adv-x="900" d="M 1060,309 C 1060,206 1021,126 944,68 866,9 758,-20 621,-20 484,-20 379,2 308,45 236,88 189,155 167,248 L 326,279 C 339,222 366,180 408,154 449,127 520,114 621,114 801,114 891,171 891,285 891,328 875,362 842,389 809,415 759,436 692,453 516,496 404,530 357,555 310,580 273,611 248,648 223,685 210,731 210,786 210,884 245,961 316,1016 387,1071 489,1099 623,1099 740,1099 834,1077 904,1033 974,988 1018,924 1035,839 L 873,819 C 866,867 842,903 802,928 762,953 702,965 623,965 460,965 378,915 378,814 378,774 392,742 420,718 447,694 492,675 553,660 L 672,629 C 781,602 859,576 907,550 954,524 992,492 1019,453 1046,414 1060,366 1060,309 Z"/>
   <glyph unicode="p" horiz-adv-x="927" d="M 1090,546 C 1090,169 959,-20 698,-20 534,-20 424,41 367,164 L 362,164 C 365,159 366,103 366,-2 L 366,-425 185,-425 185,858 C 185,971 183,1046 179,1082 L 354,1082 C 355,1079 356,1070 357,1053 358,1036 360,1011 362,978 363,945 364,920 364,904 L 368,904 C 401,974 444,1025 496,1057 547,1088 615,1104 698,1104 830,1104 928,1059 993,968 1058,877 1090,736 1090,546 Z M 904,546 C 904,697 884,804 843,869 802,933 738,965 651,965 550,965 478,929 433,856 388,783 366,672 366,524 366,382 388,278 433,212 478,146 550,113 649,113 738,113 802,147 843,214 884,281 904,392 904,546 Z"/>
   <glyph unicode="m" horiz-adv-x="1060" d="M 531,0 L 531,686 C 531,789 523,861 507,902 490,943 460,963 417,963 374,963 340,931 314,867 287,803 274,716 274,607 L 274,0 105,0 105,851 C 105,977 103,1054 99,1082 L 248,1082 254,955 254,907 256,907 C 279,975 307,1025 342,1056 377,1087 420,1102 472,1102 531,1102 575,1086 604,1054 633,1022 653,973 666,906 L 668,906 C 695,977 727,1027 764,1057 801,1087 847,1102 904,1102 983,1102 1039,1073 1073,1016 1107,959 1124,860 1124,721 L 1124,0 956,0 956,686 C 956,789 948,861 932,902 915,943 885,963 842,963 798,963 763,935 738,879 712,823 699,739 699,627 L 699,0 531,0 Z"/>
   <glyph unicode="i" horiz-adv-x="1007" d="M 745,142 L 1125,142 1125,0 143,0 143,142 565,142 565,940 246,940 246,1082 745,1082 745,142 Z M 545,1292 L 545,1484 745,1484 745,1292 545,1292 Z"/>
   <glyph unicode="9" horiz-adv-x="954" d="M 1087,703 C 1087,472 1043,294 954,169 865,43 740,-20 577,-20 467,-20 379,3 313,50 246,96 199,171 170,274 L 342,301 C 378,184 457,125 580,125 683,125 763,172 821,265 878,358 908,486 909,650 882,590 837,542 772,506 707,469 636,451 559,451 433,451 332,494 256,579 179,664 141,774 141,911 141,1052 183,1164 267,1247 350,1329 465,1370 610,1370 928,1370 1087,1148 1087,703 Z M 891,862 C 891,969 864,1057 811,1124 758,1191 689,1224 604,1224 517,1224 449,1195 399,1137 349,1079 324,1004 324,911 324,816 349,739 399,681 449,622 517,593 602,593 653,593 701,605 746,628 791,651 826,683 852,724 878,765 891,811 891,862 Z"/>
   <glyph unicode="8" horiz-adv-x="980" d="M 1094,378 C 1094,255 1053,158 970,87 887,16 768,-20 614,-20 463,-20 346,15 261,85 176,155 133,252 133,376 133,462 159,535 212,596 265,656 332,693 414,707 L 414,711 C 339,729 279,767 234,825 189,883 166,949 166,1024 166,1089 185,1149 222,1202 259,1255 311,1297 378,1326 445,1355 523,1370 610,1370 701,1370 781,1355 849,1326 917,1296 969,1255 1005,1202 1041,1149 1059,1089 1059,1022 1059,947 1036,880 990,822 944,764 884,728 809,713 L 809,709 C 896,695 965,659 1017,600 1068,541 1094,467 1094,378 Z M 872,1012 C 872,1086 850,1142 805,1180 760,1217 695,1236 610,1236 528,1236 464,1217 419,1179 373,1141 350,1085 350,1012 350,938 373,881 419,840 465,799 529,779 612,779 785,779 872,857 872,1012 Z M 907,395 C 907,475 881,537 829,580 777,623 704,644 610,644 519,644 448,621 397,575 345,528 319,467 319,391 319,301 344,233 395,186 445,139 519,115 616,115 714,115 787,138 835,184 883,230 907,300 907,395 Z"/>
   <glyph unicode="7" horiz-adv-x="954" d="M 1069,1210 C 754,757 596,353 596,0 L 408,0 C 408,175 449,365 531,568 612,771 734,983 895,1204 L 158,1204 158,1349 1069,1349 1069,1210 Z"/>
   <glyph unicode="6" horiz-adv-x="980" d="M 1096,446 C 1096,305 1056,192 975,107 894,22 782,-20 641,-20 484,-20 363,38 278,153 193,268 151,431 151,642 151,874 195,1053 283,1180 371,1307 495,1370 655,1370 868,1370 1002,1274 1057,1083 L 885,1052 C 850,1167 772,1224 653,1224 551,1224 472,1178 415,1085 358,992 330,862 330,695 363,756 409,802 468,834 527,865 595,881 672,881 800,881 903,842 980,763 1057,684 1096,578 1096,446 Z M 913,438 C 913,534 888,609 837,662 786,715 716,742 629,742 580,742 533,731 489,709 445,686 411,655 386,616 361,576 348,531 348,481 348,380 375,295 429,227 482,159 551,125 635,125 720,125 787,153 838,209 888,265 913,341 913,438 Z"/>
   <glyph unicode="5" horiz-adv-x="1006" d="M 1099,444 C 1099,351 1079,270 1040,200 1001,130 943,76 868,38 792,-1 702,-20 599,-20 468,-20 362,9 281,66 200,123 149,206 128,315 L 310,336 C 348,197 446,127 603,127 697,127 772,155 828,211 884,267 912,343 912,440 912,523 884,590 829,643 774,696 700,722 607,722 558,722 513,714 471,699 429,684 387,658 345,621 L 169,621 216,1349 1017,1349 1017,1204 382,1204 353,779 C 431,839 528,869 644,869 780,869 890,830 974,752 1057,673 1099,571 1099,444 Z"/>
   <glyph unicode="4" horiz-adv-x="1060" d="M 937,319 L 937,0 757,0 757,319 103,319 103,459 738,1349 937,1349 937,461 1125,461 1125,319 937,319 Z M 757,1154 L 257,461 757,461 757,1154 Z"/>
   <glyph unicode="3" horiz-adv-x="1006" d="M 1099,370 C 1099,246 1057,150 973,82 889,14 772,-20 621,-20 478,-20 364,12 279,77 194,142 143,237 128,362 L 314,379 C 338,212 440,129 621,129 712,129 783,150 835,192 886,234 912,295 912,376 912,426 897,468 867,503 836,537 795,563 743,582 691,600 633,609 568,609 L 466,609 466,765 564,765 C 621,765 674,775 722,794 769,813 807,839 834,874 861,909 875,950 875,997 875,1068 853,1123 809,1163 764,1202 698,1222 611,1222 532,1222 468,1202 419,1161 370,1120 341,1063 333,989 L 152,1003 C 165,1118 213,1208 296,1273 378,1338 484,1370 613,1370 754,1370 864,1339 943,1277 1021,1214 1060,1127 1060,1016 1060,937 1034,868 981,809 928,750 856,712 765,693 L 765,689 C 866,678 947,642 1008,583 1069,524 1099,453 1099,370 Z"/>
   <glyph unicode="2" horiz-adv-x="954" d="M 144,0 L 144,117 C 177,190 228,263 297,337 366,410 459,494 578,589 684,674 760,747 807,810 854,873 877,933 877,991 877,1065 854,1122 808,1162 762,1202 696,1222 611,1222 535,1222 474,1201 427,1160 380,1118 352,1059 343,984 L 159,1001 C 172,1114 219,1204 298,1271 377,1337 482,1370 611,1370 753,1370 864,1338 943,1274 1022,1210 1062,1119 1062,1002 1062,925 1037,849 986,773 935,696 860,618 759,538 622,429 527,348 474,297 421,245 383,195 361,146 L 1084,146 1084,0 144,0 Z"/>
   <glyph unicode="1" horiz-adv-x="1007" d="M 157,0 L 157,145 596,145 596,1166 C 571,1114 513,1069 421,1030 328,991 237,972 148,972 L 148,1120 C 247,1120 340,1142 428,1185 515,1228 576,1283 611,1349 L 777,1349 777,145 1130,145 1130,0 157,0 Z"/>
   <glyph unicode="0" horiz-adv-x="1006" d="M 1103,675 C 1103,450 1062,278 979,159 896,40 773,-20 611,-20 449,-20 327,39 246,158 165,276 124,448 124,675 124,908 164,1082 243,1197 322,1312 447,1370 617,1370 783,1370 906,1312 985,1196 1064,1079 1103,906 1103,675 Z M 920,675 C 920,868 897,1008 850,1095 803,1181 725,1224 617,1224 506,1224 427,1181 379,1096 330,1011 306,870 306,675 306,485 331,346 380,259 429,171 506,127 613,127 719,127 797,172 846,262 895,352 920,490 920,675 Z M 496,555 L 496,804 731,804 731,555 496,555 Z"/>
   <glyph unicode="$" horiz-adv-x="1112" d="M 1150,380 C 1150,272 1110,187 1030,124 950,61 835,26 686,20 L 686,-141 558,-141 558,20 C 277,29 113,149 66,379 L 236,416 C 253,332 289,269 342,228 395,186 467,163 558,158 L 558,647 528,655 C 416,682 334,712 282,745 229,777 191,816 167,861 142,906 130,960 130,1023 130,1122 167,1200 240,1256 313,1311 419,1341 558,1346 L 558,1476 686,1476 686,1346 C 810,1341 906,1315 973,1267 1040,1218 1089,1138 1119,1025 L 945,992 C 930,1063 902,1116 859,1152 816,1188 759,1208 686,1213 L 686,787 C 801,759 884,733 935,709 986,685 1027,658 1058,627 1089,596 1112,561 1127,521 1142,480 1150,433 1150,380 Z M 302,1018 C 302,980 310,948 326,923 341,897 364,876 394,859 424,842 479,823 558,802 L 558,1215 C 474,1212 410,1193 367,1160 324,1126 302,1079 302,1018 Z M 978,383 C 978,427 969,463 951,492 932,521 906,545 873,564 840,583 777,604 686,627 L 686,156 C 782,162 855,185 904,224 953,263 978,316 978,383 Z"/>
  </font>
 </defs>
 <defs>
  <font id="EmbeddedFont_2" horiz-adv-x="2048">
   <font-face font-family="Courier New embedded" units-per-em="2048" font-weight="bold" font-style="normal" ascent="1693" descent="609"/>
   <missing-glyph horiz-adv-x="2048" d="M 0,0 L 2047,0 2047,2047 0,2047 0,0 Z"/>
   <glyph unicode="S" horiz-adv-x="1139" d="M 1165,391 C 1165,263 1116,163 1019,90 921,17 785,-20 611,-20 454,-20 327,13 228,79 129,145 66,241 38,367 L 323,404 C 338,341 370,292 419,256 468,219 534,201 619,201 707,201 772,215 815,243 857,271 878,315 878,374 878,418 859,455 822,486 785,516 730,540 659,557 516,592 415,622 356,648 297,673 249,702 214,734 179,766 152,804 133,847 114,890 104,938 104,991 104,1108 151,1200 245,1268 338,1336 462,1370 615,1370 764,1370 881,1341 965,1282 1049,1223 1103,1131 1128,1007 L 842,978 C 813,1100 735,1161 609,1161 538,1161 484,1148 447,1122 410,1095 391,1057 391,1008 391,975 400,948 418,927 436,905 461,887 492,872 523,857 586,837 681,812 806,781 903,747 970,710 1037,672 1087,626 1118,573 1149,520 1165,459 1165,391 Z"/>
   <glyph unicode="A" horiz-adv-x="1245" d="M 1229,0 L 935,0 843,330 387,330 295,0 0,0 443,1349 787,1349 1229,0 Z M 615,1167 C 610,1139 600,1097 586,1042 571,986 526,823 449,552 L 781,552 C 703,827 657,991 644,1045 630,1099 620,1140 615,1167 Z"/>
  </font>
 </defs>
 <defs>
  <font id="EmbeddedFont_3" horiz-adv-x="2048">
   <font-face font-family="Times New Roman embedded" units-per-em="2048" font-weight="normal" font-style="normal" ascent="1826" descent="450"/>
   <missing-glyph horiz-adv-x="2048" d="M 0,0 L 2047,0 2047,2047 0,2047 0,0 Z"/>
   <glyph unicode="y" horiz-adv-x="1033" d="M 199,-442 C 147,-442 96,-436 45,-424 L 45,-221 92,-221 125,-317 C 146,-332 174,-340 211,-340 246,-340 278,-330 307,-310 336,-290 363,-260 388,-221 412,-182 442,-111 479,-10 L 121,870 25,895 25,940 461,940 461,895 313,868 567,211 813,870 666,895 666,940 1016,940 1016,895 918,874 551,-59 C 508,-169 470,-248 438,-296 406,-344 371,-380 332,-405 293,-430 249,-442 199,-442 Z"/>
   <glyph unicode="u" horiz-adv-x="980" d="M 313,268 C 313,153 366,96 473,96 556,96 633,106 705,127 L 705,870 563,895 563,940 870,940 870,70 989,45 989,0 715,0 707,76 C 660,50 605,28 543,9 481,-10 429,-20 387,-20 227,-20 147,72 147,256 L 147,870 27,895 27,940 313,940 313,268 Z"/>
   <glyph unicode="t" horiz-adv-x="557" d="M 334,-20 C 270,-20 222,-1 191,37 159,75 143,128 143,197 L 143,856 20,856 20,901 145,940 246,1153 309,1153 309,940 524,940 524,856 309,856 309,215 C 309,172 319,139 339,117 358,95 384,84 416,84 455,84 502,89 557,100 L 557,35 C 534,19 500,6 456,-5 412,-15 371,-20 334,-20 Z"/>
   <glyph unicode="s" horiz-adv-x="663" d="M 723,264 C 723,171 694,100 635,52 576,4 488,-20 373,-20 326,-20 275,-15 219,-6 162,4 118,15 86,27 L 86,258 131,258 180,127 C 230,82 295,59 375,59 504,59 569,114 569,225 569,306 518,364 416,399 L 327,428 C 260,450 211,472 180,495 149,518 126,546 109,579 92,612 84,651 84,698 84,781 112,846 169,894 225,941 301,965 397,965 466,965 552,955 655,934 L 655,729 608,729 566,838 C 531,869 475,885 399,885 345,885 304,872 276,845 247,818 233,782 233,737 233,699 246,667 272,641 297,615 336,593 388,576 486,543 550,518 580,503 610,488 636,469 657,447 678,424 694,399 706,370 717,341 723,306 723,264 Z"/>
   <glyph unicode="p" horiz-adv-x="928" d="M 152,870 L 45,895 45,940 309,940 311,885 C 339,909 377,928 424,943 471,958 518,965 567,965 687,965 780,923 846,840 911,757 944,637 944,481 944,322 908,198 837,111 765,24 661,-20 526,-20 451,-20 379,-13 311,2 315,-46 317,-84 317,-111 L 317,-365 481,-389 481,-436 33,-436 33,-389 152,-365 152,870 Z M 764,481 C 764,609 743,704 702,767 660,829 597,860 512,860 434,860 369,849 317,827 L 317,76 C 376,65 441,59 512,59 680,59 764,200 764,481 Z"/>
   <glyph unicode="k" horiz-adv-x="1007" d="M 344,453 L 729,868 631,895 631,940 963,940 963,895 846,872 578,598 922,68 1024,45 1024,0 639,0 639,45 725,70 467,475 344,340 344,70 444,45 444,0 59,0 59,45 178,70 178,1352 39,1376 39,1421 344,1421 344,453 Z"/>
   <glyph unicode="f" horiz-adv-x="636" d="M 225,856 L 63,856 63,905 225,944 225,1010 C 225,1149 253,1255 308,1330 363,1405 440,1442 539,1442 590,1442 638,1436 682,1423 L 682,1218 633,1218 588,1341 C 565,1355 538,1362 506,1362 464,1362 434,1343 417,1306 400,1269 391,1199 391,1096 L 391,940 641,940 641,856 391,856 391,78 594,45 594,0 86,0 86,45 225,78 225,856 Z"/>
   <glyph unicode="e" horiz-adv-x="769" d="M 260,473 L 260,455 C 260,363 270,292 291,241 311,190 342,151 385,124 427,97 482,84 551,84 587,84 630,87 679,93 728,99 769,106 801,113 L 801,57 C 769,36 726,18 671,3 616,-12 559,-20 502,-20 356,-20 249,19 182,98 114,177 80,303 80,477 80,641 114,763 183,844 252,925 350,965 477,965 718,965 838,828 838,555 L 838,473 260,473 Z M 477,885 C 408,885 355,857 318,801 281,745 262,662 262,553 L 664,553 C 664,672 649,758 618,809 587,860 540,885 477,885 Z"/>
   <glyph unicode="c" horiz-adv-x="795" d="M 846,57 C 813,33 768,14 711,1 654,-13 595,-20 535,-20 230,-20 78,146 78,477 78,634 117,754 195,839 272,923 383,965 528,965 618,965 716,955 823,934 L 823,672 768,672 725,838 C 670,869 603,885 526,885 347,885 258,749 258,477 258,336 285,235 340,175 394,114 478,84 592,84 689,84 774,95 846,117 L 846,57 Z"/>
   <glyph unicode="b" horiz-adv-x="954" d="M 766,496 C 766,619 745,710 702,770 659,830 593,860 504,860 465,860 426,857 387,850 348,843 320,835 303,827 L 303,82 C 359,71 426,66 504,66 596,66 663,102 704,174 745,246 766,353 766,496 Z M 137,1352 L 0,1376 0,1421 303,1421 303,1085 C 303,1049 301,983 297,887 364,939 448,965 549,965 677,965 775,926 844,849 912,771 946,653 946,496 946,327 909,199 834,112 759,24 650,-20 508,-20 451,-20 388,-14 319,-1 250,12 189,28 137,49 L 137,1352 Z"/>
   <glyph unicode="S" horiz-adv-x="901" d="M 139,361 L 204,361 239,180 C 264,149 306,121 367,97 427,73 486,61 545,61 638,61 711,85 764,133 816,180 842,246 842,330 842,378 832,418 812,449 791,480 765,507 732,529 699,550 661,569 619,584 577,599 534,614 490,629 445,644 402,661 360,680 318,699 281,722 248,751 215,780 188,815 168,858 147,900 137,952 137,1014 137,1121 177,1204 257,1265 337,1326 448,1356 590,1356 698,1356 815,1342 942,1313 L 942,1034 877,1034 842,1198 C 774,1247 690,1272 590,1272 501,1272 431,1254 381,1218 330,1181 305,1131 305,1067 305,1024 315,988 336,959 356,930 383,906 416,886 449,865 486,848 529,833 571,818 614,803 659,788 703,772 746,754 789,735 831,715 869,690 902,660 935,629 961,592 982,549 1002,505 1012,451 1012,387 1012,258 972,158 893,87 814,16 699,-20 550,-20 478,-20 406,-14 333,-1 260,12 196,29 139,51 L 139,361 Z"/>
   <glyph unicode="M" horiz-adv-x="1721" d="M 862,0 L 827,0 336,1153 336,80 516,53 516,0 59,0 59,53 231,80 231,1262 59,1288 59,1341 465,1341 901,321 1377,1341 1761,1341 1761,1288 1589,1262 1589,80 1761,53 1761,0 1217,0 1217,53 1397,80 1397,1153 862,0 Z"/>
   <glyph unicode="L" horiz-adv-x="1086" d="M 631,1288 L 424,1262 424,86 688,86 C 830,86 934,93 1001,106 L 1063,385 1128,385 1110,0 59,0 59,53 231,80 231,1262 59,1288 59,1341 631,1341 631,1288 Z"/>
   <glyph unicode=")" horiz-adv-x="557" d="M 66,-436 L 66,-352 C 141,-309 204,-251 254,-181 304,-109 341,-22 364,81 387,184 399,321 399,494 399,669 388,805 366,902 343,999 308,1085 260,1158 212,1231 147,1290 66,1337 L 66,1421 C 199,1350 303,1273 377,1191 451,1108 505,1011 540,900 575,788 592,653 592,494 592,335 575,200 540,88 505,-25 451,-122 377,-205 303,-288 199,-365 66,-436 Z"/>
   <glyph unicode=" " horiz-adv-x="503"/>
  </font>
 </defs>
 <defs class="TextShapeIndex">
  <g ooo:slide="id1" ooo:id-list="id3 id4 id5 id6 id7 id8 id9 id10 id11 id12 id13 id14 id15 id16 id17 id18 id19 id20 id21 id22 id23 id24 id25 id26 id27 id28 id29 id30 id31 id32 id33 id34 id35 id36 id37 id38 id39 id40 id41 id42 id43 id44 id45 id46 id47 id48 id49 id50 id51 id52 id53 id54 id55 id56 id57 id58 id59 id60 id61 id62 id63 id64 id65 id66 id67 id68 id69 id70 id71 id72 id73 id74 id75 id76 id77 id78 id79 id80 id81 id82 id83 id84 id85 id86 id87 id88 id89 id90 id91 id92 id93 id94 id95 id96 id97 id98 id99 id100 id101 id102 id103 id104 id105 id106 id107 id108 id109 id110 id111 id112 id113 id114 id115 id116 id117 id118 id119 id120 id121 id122 id123 id124 id125 id126 id127 id128 id129 id130 id131 id132 id133 id134 id135 id136 id137 id138 id139 id140 id141 id142 id143"/>
 </defs>
 <defs class="EmbeddedBulletChars">
  <g id="bullet-char-template-57356" transform="scale(0.00048828125,-0.00048828125)">
   <path d="M 580,1141 L 1163,571 580,0 -4,571 580,1141 Z"/>
  </g>
  <g id="bullet-char-template-57354" transform="scale(0.00048828125,-0.00048828125)">
   <path d="M 8,1128 L 1137,1128 1137,0 8,0 8,1128 Z"/>
  </g>
  <g id="bullet-char-template-10146" transform="scale(0.00048828125,-0.00048828125)">
   <path d="M 174,0 L 602,739 174,1481 1456,739 174,0 Z M 1358,739 L 309,1346 659,739 1358,739 Z"/>
  </g>
  <g id="bullet-char-template-10132" transform="scale(0.00048828125,-0.00048828125)">
   <path d="M 2015,739 L 1276,0 717,0 1260,543 174,543 174,936 1260,936 717,1481 1274,1481 2015,739 Z"/>
  </g>
  <g id="bullet-char-template-10007" transform="scale(0.00048828125,-0.00048828125)">
   <path d="M 0,-2 C -7,14 -16,27 -25,37 L 356,567 C 262,823 215,952 215,954 215,979 228,992 255,992 264,992 276,990 289,987 310,991 331,999 354,1012 L 381,999 492,748 772,1049 836,1024 860,1049 C 881,1039 901,1025 922,1006 886,937 835,863 770,784 769,783 710,716 594,584 L 774,223 C 774,196 753,168 711,139 L 727,119 C 717,90 699,76 672,76 641,76 570,178 457,381 L 164,-76 C 142,-110 111,-127 72,-127 30,-127 9,-110 8,-76 1,-67 -2,-52 -2,-32 -2,-23 -1,-13 0,-2 Z"/>
  </g>
  <g id="bullet-char-template-10004" transform="scale(0.00048828125,-0.00048828125)">
   <path d="M 285,-33 C 182,-33 111,30 74,156 52,228 41,333 41,471 41,549 55,616 82,672 116,743 169,778 240,778 293,778 328,747 346,684 L 369,508 C 377,444 397,411 428,410 L 1163,1116 C 1174,1127 1196,1133 1229,1133 1271,1133 1292,1118 1292,1087 L 1292,965 C 1292,929 1282,901 1262,881 L 442,47 C 390,-6 338,-33 285,-33 Z"/>
  </g>
  <g id="bullet-char-template-9679" transform="scale(0.00048828125,-0.00048828125)">
   <path d="M 813,0 C 632,0 489,54 383,161 276,268 223,411 223,592 223,773 276,916 383,1023 489,1130 632,1184 813,1184 992,1184 1136,1130 1245,1023 1353,916 1407,772 1407,592 1407,412 1353,268 1245,161 1136,54 992,0 813,0 Z"/>
  </g>
  <g id="bullet-char-template-8226" transform="scale(0.00048828125,-0.00048828125)">
   <path d="M 346,457 C 273,457 209,483 155,535 101,586 74,649 74,723 74,796 101,859 155,911 209,963 273,989 346,989 419,989 480,963 531,910 582,859 608,796 608,723 608,648 583,586 532,535 482,483 420,457 346,457 Z"/>
  </g>
  <g id="bullet-char-template-8211" transform="scale(0.00048828125,-0.00048828125)">
   <path d="M -4,459 L 1135,459 1135,606 -4,606 -4,459 Z"/>
  </g>
  <g id="bullet-char-template-61548" transform="scale(0.00048828125,-0.00048828125)">
   <path d="M 173,740 C 173,903 231,1043 346,1159 462,1274 601,1332 765,1332 928,1332 1067,1274 1183,1159 1299,1043 1357,903 1357,740 1357,577 1299,437 1183,322 1067,206 928,148 765,148 601,148 462,206 346,322 231,437 173,577 173,740 Z"/>
  </g>
 </defs>
 <defs class="TextEmbeddedBitmaps"/>
 <g class="SlideGroup">
  <g>
   <g id="container-id1">
    <g id="id1" class="Slide" clip-path="url(#presentation_clip_path)">
     <g class="Page">
      <g class="Group">
       <g class="com.sun.star.drawing.PolyPolygonShape">
        <g id="id3">
         <rect class="BoundingBox" stroke="none" fill="none" x="7372" y="1832" width="854" height="620"/>
         <path fill="none" stroke="rgb(22,67,38)" stroke-width="8" stroke-linejoin="round" stroke-linecap="round" d="M 7376,2447 L 8220,2447 8220,1836 7376,1836 7376,2447 Z"/>
        </g>
       </g>
       <g class="com.sun.star.drawing.TextShape">
        <g id="id4">
         <rect class="BoundingBox" stroke="none" fill="none" x="7376" y="1761" width="844" height="761"/>
         <text class="TextShape"><tspan class="TextParagraph" font-family="Courier New" font-size="353px" font-weight="400"><tspan class="TextPosition" x="7692" y="2274"><tspan fill="rgb(22,67,38)" stroke="none">7</tspan></tspan></tspan></text>
        </g>
       </g>
      </g>
      <g class="Group">
       <g class="com.sun.star.drawing.PolyPolygonShape">
        <g id="id5">
         <rect class="BoundingBox" stroke="none" fill="none" x="8215" y="1832" width="854" height="620"/>
         <path fill="none" stroke="rgb(22,67,38)" stroke-width="8" stroke-linejoin="round" stroke-linecap="round" d="M 8219,2447 L 9063,2447 9063,1836 8219,1836 8219,2447 Z"/>
        </g>
       </g>
       <g class="com.sun.star.drawing.TextShape">
        <g id="id6">
         <rect class="BoundingBox" stroke="none" fill="none" x="8219" y="1761" width="844" height="761"/>
         <text class="TextShape"><tspan class="TextParagraph" font-family="Courier New" font-size="353px" font-weight="400"><tspan class="TextPosition" x="8535" y="2274"><tspan fill="rgb(22,67,38)" stroke="none">8</tspan></tspan></tspan></text>
        </g>
       </g>
      </g>
      <g class="Group">
       <g class="com.sun.star.drawing.PolyPolygonShape">
        <g id="id7">
         <rect class="BoundingBox" stroke="none" fill="none" x="7372" y="2442" width="854" height="620"/>
         <path fill="none" stroke="rgb(22,67,38)" stroke-width="8" stroke-linejoin="round" stroke-linecap="round" d="M 7376,3057 L 8220,3057 8220,2446 7376,2446 7376,3057 Z"/>
        </g>
       </g>
       <g class="com.sun.star.drawing.TextShape">
        <g id="id8">
         <rect class="BoundingBox" stroke="none" fill="none" x="7376" y="2371" width="844" height="761"/>
         <text class="TextShape"><tspan class="TextParagraph" font-family="Courier New" font-size="353px" font-weight="400"><tspan class="TextPosition" x="7692" y="2884"><tspan fill="rgb(22,67,38)" stroke="none">9</tspan></tspan></tspan></text>
        </g>
       </g>
      </g>
      <g class="Group">
       <g class="com.sun.star.drawing.PolyPolygonShape">
        <g id="id9">
         <rect class="BoundingBox" stroke="none" fill="none" x="8215" y="2442" width="854" height="620"/>
         <path fill="none" stroke="rgb(22,67,38)" stroke-width="8" stroke-linejoin="round" stroke-linecap="round" d="M 8219,3057 L 9063,3057 9063,2446 8219,2446 8219,3057 Z"/>
        </g>
       </g>
       <g class="com.sun.star.drawing.TextShape">
        <g id="id10">
         <rect class="BoundingBox" stroke="none" fill="none" x="8219" y="2371" width="844" height="761"/>
         <text class="TextShape"><tspan class="TextParagraph" font-family="Courier New" font-size="353px" font-weight="400"><tspan class="TextPosition" x="8535" y="2884"><tspan fill="rgb(22,67,38)" stroke="none">6</tspan></tspan></tspan></text>
        </g>
       </g>
      </g>
      <g class="Group">
       <g class="com.sun.star.drawing.PolyPolygonShape">
        <g id="id11">
         <rect class="BoundingBox" stroke="none" fill="none" x="9060" y="1832" width="854" height="620"/>
         <path fill="none" stroke="rgb(22,67,38)" stroke-width="8" stroke-linejoin="round" stroke-linecap="round" d="M 9064,2447 L 9908,2447 9908,1836 9064,1836 9064,2447 Z"/>
        </g>
       </g>
       <g class="com.sun.star.drawing.TextShape">
        <g id="id12">
         <rect class="BoundingBox" stroke="none" fill="none" x="9064" y="1761" width="844" height="761"/>
         <text class="TextShape"><tspan class="TextParagraph" font-family="Courier New" font-size="353px" font-weight="400"><tspan class="TextPosition" x="9380" y="2274"><tspan fill="rgb(22,67,38)" stroke="none">9</tspan></tspan></tspan></text>
        </g>
       </g>
      </g>
      <g class="Group">
       <g class="com.sun.star.drawing.PolyPolygonShape">
        <g id="id13">
         <rect class="BoundingBox" stroke="none" fill="none" x="9902" y="1832" width="854" height="620"/>
         <path fill="none" stroke="rgb(22,67,38)" stroke-width="8" stroke-linejoin="round" stroke-linecap="round" d="M 9906,2447 L 10750,2447 10750,1836 9906,1836 9906,2447 Z"/>
        </g>
       </g>
       <g class="com.sun.star.drawing.TextShape">
        <g id="id14">
         <rect class="BoundingBox" stroke="none" fill="none" x="9906" y="1761" width="844" height="761"/>
         <text class="TextShape"><tspan class="TextParagraph" font-family="Courier New" font-size="353px" font-weight="400"><tspan class="TextPosition" x="10047" y="2274"><tspan fill="rgb(22,67,38)" stroke="none">10</tspan></tspan></tspan></text>
        </g>
       </g>
      </g>
      <g class="Group">
       <g class="com.sun.star.drawing.PolyPolygonShape">
        <g id="id15">
         <rect class="BoundingBox" stroke="none" fill="none" x="9060" y="2442" width="854" height="620"/>
         <path fill="none" stroke="rgb(22,67,38)" stroke-width="8" stroke-linejoin="round" stroke-linecap="round" d="M 9064,3057 L 9908,3057 9908,2446 9064,2446 9064,3057 Z"/>
        </g>
       </g>
       <g class="com.sun.star.drawing.TextShape">
        <g id="id16">
         <rect class="BoundingBox" stroke="none" fill="none" x="9064" y="2371" width="844" height="761"/>
         <text class="TextShape"><tspan class="TextParagraph" font-family="Courier New" font-size="353px" font-weight="400"><tspan class="TextPosition" x="9205" y="2884"><tspan fill="rgb(22,67,38)" stroke="none">11</tspan></tspan></tspan></text>
        </g>
       </g>
      </g>
      <g class="Group">
       <g class="com.sun.star.drawing.PolyPolygonShape">
        <g id="id17">
         <rect class="BoundingBox" stroke="none" fill="none" x="9902" y="2442" width="854" height="620"/>
         <path fill="none" stroke="rgb(22,67,38)" stroke-width="8" stroke-linejoin="round" stroke-linecap="round" d="M 9906,3057 L 10750,3057 10750,2446 9906,2446 9906,3057 Z"/>
        </g>
       </g>
       <g class="com.sun.star.drawing.TextShape">
        <g id="id18">
         <rect class="BoundingBox" stroke="none" fill="none" x="9906" y="2371" width="844" height="761"/>
         <text class="TextShape"><tspan class="TextParagraph" font-family="Courier New" font-size="353px" font-weight="400"><tspan class="TextPosition" x="10222" y="2884"><tspan fill="rgb(22,67,38)" stroke="none">⊥</tspan></tspan></tspan></text>
        </g>
       </g>
      </g>
      <g class="Group">
       <g class="com.sun.star.drawing.PolyPolygonShape">
        <g id="id19">
         <rect class="BoundingBox" stroke="none" fill="none" x="10747" y="1832" width="854" height="620"/>
         <path fill="none" stroke="rgb(22,67,38)" stroke-width="8" stroke-linejoin="round" stroke-linecap="round" d="M 10751,2447 L 11595,2447 11595,1836 10751,1836 10751,2447 Z"/>
        </g>
       </g>
       <g class="com.sun.star.drawing.TextShape">
        <g id="id20">
         <rect class="BoundingBox" stroke="none" fill="none" x="10751" y="1761" width="844" height="761"/>
         <text class="TextShape"><tspan class="TextParagraph" font-family="Courier New" font-size="353px" font-weight="400"><tspan class="TextPosition" x="10892" y="2274"><tspan fill="rgb(22,67,38)" stroke="none">11</tspan></tspan></tspan></text>
        </g>
       </g>
      </g>
      <g class="Group">
       <g class="com.sun.star.drawing.PolyPolygonShape">
        <g id="id21">
         <rect class="BoundingBox" stroke="none" fill="none" x="11590" y="1832" width="854" height="620"/>
         <path fill="none" stroke="rgb(22,67,38)" stroke-width="8" stroke-linejoin="round" stroke-linecap="round" d="M 11594,2447 L 12438,2447 12438,1836 11594,1836 11594,2447 Z"/>
        </g>
       </g>
       <g class="com.sun.star.drawing.TextShape">
        <g id="id22">
         <rect class="BoundingBox" stroke="none" fill="none" x="11594" y="1761" width="844" height="761"/>
         <text class="TextShape"><tspan class="TextParagraph" font-family="Courier New" font-size="353px" font-weight="400"><tspan class="TextPosition" x="11735" y="2274"><tspan fill="rgb(22,67,38)" stroke="none">12</tspan></tspan></tspan></text>
        </g>
       </g>
      </g>
      <g class="Group">
       <g class="com.sun.star.drawing.PolyPolygonShape">
        <g id="id23">
         <rect class="BoundingBox" stroke="none" fill="none" x="10747" y="2442" width="854" height="620"/>
         <path fill="none" stroke="rgb(22,67,38)" stroke-width="8" stroke-linejoin="round" stroke-linecap="round" d="M 10751,3057 L 11595,3057 11595,2446 10751,2446 10751,3057 Z"/>
        </g>
       </g>
       <g class="com.sun.star.drawing.TextShape">
        <g id="id24">
         <rect class="BoundingBox" stroke="none" fill="none" x="10751" y="2371" width="844" height="761"/>
         <text class="TextShape"><tspan class="TextParagraph" font-family="Courier New" font-size="353px" font-weight="400"><tspan class="TextPosition" x="11067" y="2884"><tspan fill="rgb(22,67,38)" stroke="none">⊥</tspan></tspan></tspan></text>
        </g>
       </g>
      </g>
      <g class="Group">
       <g class="com.sun.star.drawing.PolyPolygonShape">
        <g id="id25">
         <rect class="BoundingBox" stroke="none" fill="none" x="11590" y="2442" width="854" height="620"/>
         <path fill="none" stroke="rgb(22,67,38)" stroke-width="8" stroke-linejoin="round" stroke-linecap="round" d="M 11594,3057 L 12438,3057 12438,2446 11594,2446 11594,3057 Z"/>
        </g>
       </g>
       <g class="com.sun.star.drawing.TextShape">
        <g id="id26">
         <rect class="BoundingBox" stroke="none" fill="none" x="11594" y="2371" width="844" height="761"/>
         <text class="TextShape"><tspan class="TextParagraph" font-family="Courier New" font-size="353px" font-weight="400"><tspan class="TextPosition" x="11910" y="2884"><tspan fill="rgb(22,67,38)" stroke="none">⊥</tspan></tspan></tspan></text>
        </g>
       </g>
      </g>
      <g class="Group">
       <g class="com.sun.star.drawing.PolyPolygonShape">
        <g id="id27">
         <rect class="BoundingBox" stroke="none" fill="none" x="12432" y="1832" width="853" height="620"/>
         <path fill="none" stroke="rgb(22,67,38)" stroke-width="8" stroke-linejoin="round" stroke-linecap="round" d="M 12436,2447 L 13280,2447 13280,1836 12436,1836 12436,2447 Z"/>
        </g>
       </g>
       <g class="com.sun.star.drawing.TextShape">
        <g id="id28">
         <rect class="BoundingBox" stroke="none" fill="none" x="12436" y="1761" width="844" height="761"/>
         <text class="TextShape"><tspan class="TextParagraph" font-family="Courier New" font-size="353px" font-weight="400"><tspan class="TextPosition" x="12577" y="2274"><tspan fill="rgb(22,67,38)" stroke="none">13</tspan></tspan></tspan></text>
        </g>
       </g>
      </g>
      <g class="Group">
       <g class="com.sun.star.drawing.PolyPolygonShape">
        <g id="id29">
         <rect class="BoundingBox" stroke="none" fill="none" x="13275" y="1832" width="854" height="620"/>
         <path fill="none" stroke="rgb(22,67,38)" stroke-width="8" stroke-linejoin="round" stroke-linecap="round" d="M 13279,2447 L 14123,2447 14123,1836 13279,1836 13279,2447 Z"/>
        </g>
       </g>
       <g class="com.sun.star.drawing.TextShape">
        <g id="id30">
         <rect class="BoundingBox" stroke="none" fill="none" x="13279" y="1761" width="844" height="761"/>
         <text class="TextShape"><tspan class="TextParagraph" font-family="Courier New" font-size="353px" font-weight="400"><tspan class="TextPosition" x="13420" y="2274"><tspan fill="rgb(22,67,38)" stroke="none">14</tspan></tspan></tspan></text>
        </g>
       </g>
      </g>
      <g class="Group">
       <g class="com.sun.star.drawing.PolyPolygonShape">
        <g id="id31">
         <rect class="BoundingBox" stroke="none" fill="none" x="12432" y="2442" width="853" height="620"/>
         <path fill="none" stroke="rgb(22,67,38)" stroke-width="8" stroke-linejoin="round" stroke-linecap="round" d="M 12436,3057 L 13280,3057 13280,2446 12436,2446 12436,3057 Z"/>
        </g>
       </g>
       <g class="com.sun.star.drawing.TextShape">
        <g id="id32">
         <rect class="BoundingBox" stroke="none" fill="none" x="12436" y="2371" width="844" height="761"/>
         <text class="TextShape"><tspan class="TextParagraph" font-family="Courier New" font-size="353px" font-weight="400"><tspan class="TextPosition" x="12752" y="2884"><tspan fill="rgb(22,67,38)" stroke="none">⊥</tspan></tspan></tspan></text>
        </g>
       </g>
      </g>
      <g class="Group">
       <g class="com.sun.star.drawing.PolyPolygonShape">
        <g id="id33">
         <rect class="BoundingBox" stroke="none" fill="none" x="13275" y="2442" width="854" height="620"/>
         <path fill="none" stroke="rgb(22,67,38)" stroke-width="8" stroke-linejoin="round" stroke-linecap="round" d="M 13279,3057 L 14123,3057 14123,2446 13279,2446 13279,3057 Z"/>
        </g>
       </g>
       <g class="com.sun.star.drawing.TextShape">
        <g id="id34">
         <rect class="BoundingBox" stroke="none" fill="none" x="13279" y="2371" width="844" height="761"/>
         <text class="TextShape"><tspan class="TextParagraph" font-family="Courier New" font-size="353px" font-weight="400"><tspan class="TextPosition" x="13595" y="2884"><tspan fill="rgb(22,67,38)" stroke="none">⊥</tspan></tspan></tspan></text>
        </g>
       </g>
      </g>
      <g class="Group">
       <g class="com.sun.star.drawing.PolyPolygonShape">
        <g id="id35">
         <rect class="BoundingBox" stroke="none" fill="none" x="14120" y="1832" width="854" height="620"/>
         <path fill="none" stroke="rgb(22,67,38)" stroke-width="8" stroke-linejoin="round" stroke-linecap="round" d="M 14124,2447 L 14968,2447 14968,1836 14124,1836 14124,2447 Z"/>
        </g>
       </g>
       <g class="com.sun.star.drawing.TextShape">
        <g id="id36">
         <rect class="BoundingBox" stroke="none" fill="none" x="14124" y="1761" width="844" height="761"/>
         <text class="TextShape"><tspan class="TextParagraph" font-family="Courier New" font-size="353px" font-weight="400"><tspan class="TextPosition" x="14265" y="2274"><tspan fill="rgb(22,67,38)" stroke="none">15</tspan></tspan></tspan></text>
        </g>
       </g>
      </g>
      <g class="Group">
       <g class="com.sun.star.drawing.PolyPolygonShape">
        <g id="id37">
         <rect class="BoundingBox" stroke="none" fill="none" x="14962" y="1832" width="853" height="620"/>
         <path fill="none" stroke="rgb(22,67,38)" stroke-width="8" stroke-linejoin="round" stroke-linecap="round" d="M 14966,2447 L 15810,2447 15810,1836 14966,1836 14966,2447 Z"/>
        </g>
       </g>
       <g class="com.sun.star.drawing.TextShape">
        <g id="id38">
         <rect class="BoundingBox" stroke="none" fill="none" x="14966" y="1761" width="844" height="761"/>
         <text class="TextShape"><tspan class="TextParagraph" font-family="Courier New" font-size="353px" font-weight="400"><tspan class="TextPosition" x="15107" y="2274"><tspan fill="rgb(22,67,38)" stroke="none">16</tspan></tspan></tspan></text>
        </g>
       </g>
      </g>
      <g class="Group">
       <g class="com.sun.star.drawing.PolyPolygonShape">
        <g id="id39">
         <rect class="BoundingBox" stroke="none" fill="none" x="14120" y="2442" width="854" height="620"/>
         <path fill="none" stroke="rgb(22,67,38)" stroke-width="8" stroke-linejoin="round" stroke-linecap="round" d="M 14124,3057 L 14968,3057 14968,2446 14124,2446 14124,3057 Z"/>
        </g>
       </g>
       <g class="com.sun.star.drawing.TextShape">
        <g id="id40">
         <rect class="BoundingBox" stroke="none" fill="none" x="14124" y="2371" width="844" height="761"/>
         <text class="TextShape"><tspan class="TextParagraph" font-family="Courier New" font-size="353px" font-weight="400"><tspan class="TextPosition" x="14440" y="2884"><tspan fill="rgb(22,67,38)" stroke="none">⊥</tspan></tspan></tspan></text>
        </g>
       </g>
      </g>
      <g class="Group">
       <g class="com.sun.star.drawing.PolyPolygonShape">
        <g id="id41">
         <rect class="BoundingBox" stroke="none" fill="none" x="14962" y="2442" width="853" height="620"/>
         <path fill="none" stroke="rgb(22,67,38)" stroke-width="8" stroke-linejoin="round" stroke-linecap="round" d="M 14966,3057 L 15810,3057 15810,2446 14966,2446 14966,3057 Z"/>
        </g>
       </g>
       <g class="com.sun.star.drawing.TextShape">
        <g id="id42">
         <rect class="BoundingBox" stroke="none" fill="none" x="14966" y="2371" width="844" height="761"/>
         <text class="TextShape"><tspan class="TextParagraph" font-family="Courier New" font-size="353px" font-weight="400"><tspan class="TextPosition" x="15282" y="2884"><tspan fill="rgb(22,67,38)" stroke="none">⊥</tspan></tspan></tspan></text>
        </g>
       </g>
      </g>
      <g class="Group">
       <g class="com.sun.star.drawing.PolyPolygonShape">
        <g id="id43">
         <rect class="BoundingBox" stroke="none" fill="none" x="15805" y="1832" width="853" height="620"/>
         <path fill="none" stroke="rgb(22,67,38)" stroke-width="8" stroke-linejoin="round" stroke-linecap="round" d="M 15809,2447 L 16653,2447 16653,1836 15809,1836 15809,2447 Z"/>
        </g>
       </g>
       <g class="com.sun.star.drawing.TextShape">
        <g id="id44">
         <rect class="BoundingBox" stroke="none" fill="none" x="15809" y="1761" width="844" height="761"/>
         <text class="TextShape"><tspan class="TextParagraph" font-family="Courier New" font-size="353px" font-weight="400"><tspan class="TextPosition" x="15950" y="2274"><tspan fill="rgb(22,67,38)" stroke="none">17</tspan></tspan></tspan></text>
        </g>
       </g>
      </g>
      <g class="Group">
       <g class="com.sun.star.drawing.PolyPolygonShape">
        <g id="id45">
         <rect class="BoundingBox" stroke="none" fill="none" x="16647" y="1832" width="853" height="620"/>
         <path fill="none" stroke="rgb(22,67,38)" stroke-width="8" stroke-linejoin="round" stroke-linecap="round" d="M 16651,2447 L 17495,2447 17495,1836 16651,1836 16651,2447 Z"/>
        </g>
       </g>
       <g class="com.sun.star.drawing.TextShape">
        <g id="id46">
         <rect class="BoundingBox" stroke="none" fill="none" x="16651" y="1761" width="844" height="761"/>
         <text class="TextShape"><tspan class="TextParagraph" font-family="Courier New" font-size="353px" font-weight="400"><tspan class="TextPosition" x="16792" y="2274"><tspan fill="rgb(22,67,38)" stroke="none">18</tspan></tspan></tspan></text>
        </g>
       </g>
      </g>
      <g class="Group">
       <g class="com.sun.star.drawing.PolyPolygonShape">
        <g id="id47">
         <rect class="BoundingBox" stroke="none" fill="none" x="15805" y="2442" width="853" height="620"/>
         <path fill="none" stroke="rgb(22,67,38)" stroke-width="8" stroke-linejoin="round" stroke-linecap="round" d="M 15809,3057 L 16653,3057 16653,2446 15809,2446 15809,3057 Z"/>
        </g>
       </g>
       <g class="com.sun.star.drawing.TextShape">
        <g id="id48">
         <rect class="BoundingBox" stroke="none" fill="none" x="15809" y="2371" width="844" height="761"/>
         <text class="TextShape"><tspan class="TextParagraph" font-family="Courier New" font-size="353px" font-weight="400"><tspan class="TextPosition" x="16125" y="2884"><tspan fill="rgb(22,67,38)" stroke="none">⊥</tspan></tspan></tspan></text>
        </g>
       </g>
      </g>
      <g class="Group">
       <g class="com.sun.star.drawing.PolyPolygonShape">
        <g id="id49">
         <rect class="BoundingBox" stroke="none" fill="none" x="16647" y="2442" width="853" height="620"/>
         <path fill="none" stroke="rgb(22,67,38)" stroke-width="8" stroke-linejoin="round" stroke-linecap="round" d="M 16651,3057 L 17495,3057 17495,2446 16651,2446 16651,3057 Z"/>
        </g>
       </g>
       <g class="com.sun.star.drawing.TextShape">
        <g id="id50">
         <rect class="BoundingBox" stroke="none" fill="none" x="16651" y="2371" width="844" height="761"/>
         <text class="TextShape"><tspan class="TextParagraph" font-family="Courier New" font-size="353px" font-weight="400"><tspan class="TextPosition" x="16967" y="2884"><tspan fill="rgb(22,67,38)" stroke="none">⊥</tspan></tspan></tspan></text>
        </g>
       </g>
      </g>
      <g class="Group">
       <g class="com.sun.star.drawing.PolyPolygonShape">
        <g id="id51">
         <rect class="BoundingBox" stroke="none" fill="none" x="2312" y="1222" width="853" height="621"/>
         <path fill="none" stroke="rgb(22,67,38)" stroke-width="8" stroke-linejoin="round" stroke-linecap="round" d="M 2316,1837 L 3160,1837 3160,1226 2316,1226 2316,1837 Z"/>
        </g>
       </g>
       <g class="com.sun.star.drawing.TextShape">
        <g id="id52">
         <rect class="BoundingBox" stroke="none" fill="none" x="2316" y="1151" width="844" height="761"/>
         <text class="TextShape"><tspan class="TextParagraph" font-family="Courier New" font-size="353px" font-weight="400"><tspan class="TextPosition" x="2632" y="1664"><tspan fill="rgb(22,67,38)" stroke="none">$</tspan></tspan></tspan></text>
        </g>
       </g>
      </g>
      <g class="Group">
       <g class="com.sun.star.drawing.PolyPolygonShape">
        <g id="id53">
         <rect class="BoundingBox" stroke="none" fill="none" x="3154" y="1222" width="6759" height="621"/>
         <path fill="none" stroke="rgb(22,67,38)" stroke-width="8" stroke-linejoin="round" stroke-linecap="round" d="M 3159,1837 L 9908,1837 9908,1226 3159,1226 3159,1837 Z"/>
        </g>
       </g>
       <g class="com.sun.star.drawing.TextShape">
        <g id="id54">
         <rect class="BoundingBox" stroke="none" fill="none" x="3159" y="1151" width="6749" height="761"/>
         <text class="TextShape"><tspan class="TextParagraph" font-family="Courier New" font-size="353px" font-weight="400"><tspan class="TextPosition" x="6427" y="1664"><tspan fill="rgb(22,67,38)" stroke="none">i</tspan></tspan></tspan></text>
        </g>
       </g>
      </g>
      <g class="Group">
       <g class="com.sun.star.drawing.PolyPolygonShape">
        <g id="id55">
         <rect class="BoundingBox" stroke="none" fill="none" x="9901" y="1222" width="2541" height="621"/>
         <path fill="none" stroke="rgb(22,67,38)" stroke-width="8" stroke-linejoin="round" stroke-linecap="round" d="M 9906,1837 L 12437,1837 12437,1226 9906,1226 9906,1837 Z"/>
        </g>
       </g>
       <g class="com.sun.star.drawing.TextShape">
        <g id="id56">
         <rect class="BoundingBox" stroke="none" fill="none" x="9906" y="1151" width="2531" height="761"/>
         <text class="TextShape"><tspan class="TextParagraph" font-family="Courier New" font-size="353px" font-weight="400"><tspan class="TextPosition" x="11065" y="1664"><tspan fill="rgb(22,67,38)" stroke="none">m</tspan></tspan></tspan></text>
        </g>
       </g>
      </g>
      <g class="Group">
       <g class="com.sun.star.drawing.PolyPolygonShape">
        <g id="id57">
         <rect class="BoundingBox" stroke="none" fill="none" x="12432" y="1222" width="853" height="621"/>
         <path fill="none" stroke="rgb(22,67,38)" stroke-width="8" stroke-linejoin="round" stroke-linecap="round" d="M 12436,1837 L 13280,1837 13280,1226 12436,1226 12436,1837 Z"/>
        </g>
       </g>
       <g class="com.sun.star.drawing.TextShape">
        <g id="id58">
         <rect class="BoundingBox" stroke="none" fill="none" x="12436" y="1151" width="844" height="761"/>
         <text class="TextShape"><tspan class="TextParagraph" font-family="Courier New" font-size="353px" font-weight="400"><tspan class="TextPosition" x="12752" y="1664"><tspan fill="rgb(22,67,38)" stroke="none">p</tspan></tspan></tspan></text>
        </g>
       </g>
      </g>
      <g class="Group">
       <g class="com.sun.star.drawing.PolyPolygonShape">
        <g id="id59">
         <rect class="BoundingBox" stroke="none" fill="none" x="13275" y="1222" width="4227" height="621"/>
         <path fill="none" stroke="rgb(22,67,38)" stroke-width="8" stroke-linejoin="round" stroke-linecap="round" d="M 13279,1837 L 17497,1837 17497,1226 13279,1226 13279,1837 Z"/>
        </g>
       </g>
       <g class="com.sun.star.drawing.TextShape">
        <g id="id60">
         <rect class="BoundingBox" stroke="none" fill="none" x="13279" y="1151" width="4218" height="761"/>
         <text class="TextShape"><tspan class="TextParagraph" font-family="Courier New" font-size="353px" font-weight="400"><tspan class="TextPosition" x="15282" y="1664"><tspan fill="rgb(22,67,38)" stroke="none">s</tspan></tspan></tspan></text>
        </g>
       </g>
      </g>
      <g class="com.sun.star.drawing.PolyPolygonShape">
       <g id="id61">
        <rect class="BoundingBox" stroke="none" fill="none" x="7372" y="3052" width="854" height="621"/>
        <path fill="none" stroke="rgb(22,67,38)" stroke-width="8" stroke-linejoin="round" stroke-linecap="round" d="M 7376,3667 L 8220,3667 8220,3056 7376,3056 7376,3667 Z"/>
       </g>
      </g>
      <g class="com.sun.star.drawing.PolyPolygonShape">
       <g id="id62">
        <rect class="BoundingBox" stroke="none" fill="none" x="8215" y="3052" width="854" height="621"/>
        <path fill="none" stroke="rgb(22,67,38)" stroke-width="8" stroke-linejoin="round" stroke-linecap="round" d="M 8219,3667 L 9063,3667 9063,3056 8219,3056 8219,3667 Z"/>
       </g>
      </g>
      <g class="com.sun.star.drawing.PolyPolygonShape">
       <g id="id63">
        <rect class="BoundingBox" stroke="none" fill="none" x="9060" y="3052" width="854" height="621"/>
        <path fill="none" stroke="rgb(22,67,38)" stroke-width="8" stroke-linejoin="round" stroke-linecap="round" d="M 9064,3667 L 9908,3667 9908,3056 9064,3056 9064,3667 Z"/>
       </g>
      </g>
      <g class="Group">
       <g class="com.sun.star.drawing.PolyPolygonShape">
        <g id="id64">
         <rect class="BoundingBox" stroke="none" fill="none" x="9902" y="3052" width="854" height="621"/>
         <path fill="none" stroke="rgb(22,67,38)" stroke-width="8" stroke-linejoin="round" stroke-linecap="round" d="M 9906,3667 L 10750,3667 10750,3056 9906,3056 9906,3667 Z"/>
        </g>
       </g>
       <g class="com.sun.star.drawing.TextShape">
        <g id="id65">
         <rect class="BoundingBox" stroke="none" fill="none" x="9906" y="2981" width="844" height="761"/>
         <text class="TextShape"><tspan class="TextParagraph" font-family="Courier New" font-size="353px" font-weight="400"><tspan class="TextPosition" x="10222" y="3494"><tspan fill="rgb(22,67,38)" stroke="none">3</tspan></tspan></tspan></text>
        </g>
       </g>
      </g>
      <g class="Group">
       <g class="com.sun.star.drawing.PolyPolygonShape">
        <g id="id66">
         <rect class="BoundingBox" stroke="none" fill="none" x="10747" y="3052" width="854" height="621"/>
         <path fill="none" stroke="rgb(22,67,38)" stroke-width="8" stroke-linejoin="round" stroke-linecap="round" d="M 10751,3667 L 11595,3667 11595,3056 10751,3056 10751,3667 Z"/>
        </g>
       </g>
       <g class="com.sun.star.drawing.TextShape">
        <g id="id67">
         <rect class="BoundingBox" stroke="none" fill="none" x="10751" y="2981" width="844" height="761"/>
         <text class="TextShape"><tspan class="TextParagraph" font-family="Courier New" font-size="353px" font-weight="400"><tspan class="TextPosition" x="11067" y="3494"><tspan fill="rgb(22,67,38)" stroke="none">8</tspan></tspan></tspan></text>
        </g>
       </g>
      </g>
      <g class="Group">
       <g class="com.sun.star.drawing.PolyPolygonShape">
        <g id="id68">
         <rect class="BoundingBox" stroke="none" fill="none" x="11590" y="3052" width="854" height="621"/>
         <path fill="none" stroke="rgb(22,67,38)" stroke-width="8" stroke-linejoin="round" stroke-linecap="round" d="M 11594,3667 L 12438,3667 12438,3056 11594,3056 11594,3667 Z"/>
        </g>
       </g>
       <g class="com.sun.star.drawing.TextShape">
        <g id="id69">
         <rect class="BoundingBox" stroke="none" fill="none" x="11594" y="2981" width="844" height="761"/>
         <text class="TextShape"><tspan class="TextParagraph" font-family="Courier New" font-size="353px" font-weight="400"><tspan class="TextPosition" x="11910" y="3494"><tspan fill="rgb(22,67,38)" stroke="none">2</tspan></tspan></tspan></text>
        </g>
       </g>
      </g>
      <g class="Group">
       <g class="com.sun.star.drawing.PolyPolygonShape">
        <g id="id70">
         <rect class="BoundingBox" stroke="none" fill="none" x="12432" y="3052" width="853" height="621"/>
         <path fill="none" stroke="rgb(22,67,38)" stroke-width="8" stroke-linejoin="round" stroke-linecap="round" d="M 12436,3667 L 13280,3667 13280,3056 12436,3056 12436,3667 Z"/>
        </g>
       </g>
       <g class="com.sun.star.drawing.TextShape">
        <g id="id71">
         <rect class="BoundingBox" stroke="none" fill="none" x="12436" y="2981" width="844" height="761"/>
         <text class="TextShape"><tspan class="TextParagraph" font-family="Courier New" font-size="353px" font-weight="400"><tspan class="TextPosition" x="12577" y="3494"><tspan fill="rgb(22,67,38)" stroke="none">16</tspan></tspan></tspan></text>
        </g>
       </g>
      </g>
      <g class="Group">
       <g class="com.sun.star.drawing.PolyPolygonShape">
        <g id="id72">
         <rect class="BoundingBox" stroke="none" fill="none" x="13275" y="3052" width="854" height="621"/>
         <path fill="none" stroke="rgb(22,67,38)" stroke-width="8" stroke-linejoin="round" stroke-linecap="round" d="M 13279,3667 L 14123,3667 14123,3056 13279,3056 13279,3667 Z"/>
        </g>
       </g>
       <g class="com.sun.star.drawing.TextShape">
        <g id="id73">
         <rect class="BoundingBox" stroke="none" fill="none" x="13279" y="2981" width="844" height="761"/>
         <text class="TextShape"><tspan class="TextParagraph" font-family="Courier New" font-size="353px" font-weight="400"><tspan class="TextPosition" x="13420" y="3494"><tspan fill="rgb(22,67,38)" stroke="none">13</tspan></tspan></tspan></text>
        </g>
       </g>
      </g>
      <g class="Group">
       <g class="com.sun.star.drawing.PolyPolygonShape">
        <g id="id74">
         <rect class="BoundingBox" stroke="none" fill="none" x="14120" y="3052" width="854" height="621"/>
         <path fill="none" stroke="rgb(22,67,38)" stroke-width="8" stroke-linejoin="round" stroke-linecap="round" d="M 14124,3667 L 14968,3667 14968,3056 14124,3056 14124,3667 Z"/>
        </g>
       </g>
       <g class="com.sun.star.drawing.TextShape">
        <g id="id75">
         <rect class="BoundingBox" stroke="none" fill="none" x="14124" y="2981" width="844" height="761"/>
         <text class="TextShape"><tspan class="TextParagraph" font-family="Courier New" font-size="353px" font-weight="400"><tspan class="TextPosition" x="14440" y="3494"><tspan fill="rgb(22,67,38)" stroke="none">5</tspan></tspan></tspan></text>
        </g>
       </g>
      </g>
      <g class="Group">
       <g class="com.sun.star.drawing.PolyPolygonShape">
        <g id="id76">
         <rect class="BoundingBox" stroke="none" fill="none" x="14962" y="3052" width="853" height="621"/>
         <path fill="none" stroke="rgb(22,67,38)" stroke-width="8" stroke-linejoin="round" stroke-linecap="round" d="M 14966,3667 L 15810,3667 15810,3056 14966,3056 14966,3667 Z"/>
        </g>
       </g>
       <g class="com.sun.star.drawing.TextShape">
        <g id="id77">
         <rect class="BoundingBox" stroke="none" fill="none" x="14966" y="2981" width="844" height="761"/>
         <text class="TextShape"><tspan class="TextParagraph" font-family="Courier New" font-size="353px" font-weight="400"><tspan class="TextPosition" x="15107" y="3494"><tspan fill="rgb(22,67,38)" stroke="none">10</tspan></tspan></tspan></text>
        </g>
       </g>
      </g>
      <g class="Group">
       <g class="com.sun.star.drawing.PolyPolygonShape">
        <g id="id78">
         <rect class="BoundingBox" stroke="none" fill="none" x="15805" y="3052" width="853" height="621"/>
         <path fill="none" stroke="rgb(22,67,38)" stroke-width="8" stroke-linejoin="round" stroke-linecap="round" d="M 15809,3667 L 16653,3667 16653,3056 15809,3056 15809,3667 Z"/>
        </g>
       </g>
       <g class="com.sun.star.drawing.TextShape">
        <g id="id79">
         <rect class="BoundingBox" stroke="none" fill="none" x="15809" y="2981" width="844" height="761"/>
         <text class="TextShape"><tspan class="TextParagraph" font-family="Courier New" font-size="353px" font-weight="400"><tspan class="TextPosition" x="16125" y="3494"><tspan fill="rgb(22,67,38)" stroke="none">7</tspan></tspan></tspan></text>
        </g>
       </g>
      </g>
      <g class="Group">
       <g class="com.sun.star.drawing.PolyPolygonShape">
        <g id="id80">
         <rect class="BoundingBox" stroke="none" fill="none" x="16647" y="3052" width="853" height="621"/>
         <path fill="none" stroke="rgb(22,67,38)" stroke-width="8" stroke-linejoin="round" stroke-linecap="round" d="M 16651,3667 L 17495,3667 17495,3056 16651,3056 16651,3667 Z"/>
        </g>
       </g>
       <g class="com.sun.star.drawing.TextShape">
        <g id="id81">
         <rect class="BoundingBox" stroke="none" fill="none" x="16651" y="2981" width="844" height="761"/>
         <text class="TextShape"><tspan class="TextParagraph" font-family="Courier New" font-size="353px" font-weight="400"><tspan class="TextPosition" x="16792" y="3494"><tspan fill="rgb(22,67,38)" stroke="none">12</tspan></tspan></tspan></text>
        </g>
       </g>
      </g>
      <g class="Group">
       <g class="com.sun.star.drawing.PolyPolygonShape">
        <g id="id82">
         <rect class="BoundingBox" stroke="none" fill="none" x="7372" y="3662" width="854" height="620"/>
         <path fill="none" stroke="rgb(22,67,38)" stroke-width="8" stroke-linejoin="round" stroke-linecap="round" d="M 7376,4277 L 8220,4277 8220,3666 7376,3666 7376,4277 Z"/>
        </g>
       </g>
       <g class="com.sun.star.drawing.TextShape">
        <g id="id83">
         <rect class="BoundingBox" stroke="none" fill="none" x="7376" y="3591" width="844" height="761"/>
         <text class="TextShape"><tspan class="TextParagraph" font-family="Courier New" font-size="353px" font-weight="400"><tspan class="TextPosition" x="7692" y="4104"><tspan fill="rgb(22,67,38)" stroke="none">9</tspan></tspan></tspan></text>
        </g>
       </g>
      </g>
      <g class="Group">
       <g class="com.sun.star.drawing.PolyPolygonShape">
        <g id="id84">
         <rect class="BoundingBox" stroke="none" fill="none" x="8215" y="3662" width="854" height="620"/>
         <path fill="none" stroke="rgb(22,67,38)" stroke-width="8" stroke-linejoin="round" stroke-linecap="round" d="M 8219,4277 L 9063,4277 9063,3666 8219,3666 8219,4277 Z"/>
        </g>
       </g>
       <g class="com.sun.star.drawing.TextShape">
        <g id="id85">
         <rect class="BoundingBox" stroke="none" fill="none" x="8219" y="3591" width="844" height="761"/>
         <text class="TextShape"><tspan class="TextParagraph" font-family="Courier New" font-size="353px" font-weight="400"><tspan class="TextPosition" x="8535" y="4104"><tspan fill="rgb(22,67,38)" stroke="none">6</tspan></tspan></tspan></text>
        </g>
       </g>
      </g>
      <g class="Group">
       <g class="com.sun.star.drawing.PolyPolygonShape">
        <g id="id86">
         <rect class="BoundingBox" stroke="none" fill="none" x="9060" y="3662" width="854" height="620"/>
         <path fill="none" stroke="rgb(22,67,38)" stroke-width="8" stroke-linejoin="round" stroke-linecap="round" d="M 9064,4277 L 9908,4277 9908,3666 9064,3666 9064,4277 Z"/>
        </g>
       </g>
       <g class="com.sun.star.drawing.TextShape">
        <g id="id87">
         <rect class="BoundingBox" stroke="none" fill="none" x="9064" y="3591" width="844" height="761"/>
         <text class="TextShape"><tspan class="TextParagraph" font-family="Courier New" font-size="353px" font-weight="400"><tspan class="TextPosition" x="9205" y="4104"><tspan fill="rgb(22,67,38)" stroke="none">11</tspan></tspan></tspan></text>
        </g>
       </g>
      </g>
      <g class="com.sun.star.drawing.PolyPolygonShape">
       <g id="id88">
        <rect class="BoundingBox" stroke="none" fill="none" x="9902" y="3662" width="854" height="620"/>
        <path fill="none" stroke="rgb(22,67,38)" stroke-width="8" stroke-linejoin="round" stroke-linecap="round" d="M 9906,4277 L 10750,4277 10750,3666 9906,3666 9906,4277 Z"/>
       </g>
      </g>
      <g class="com.sun.star.drawing.PolyPolygonShape">
       <g id="id89">
        <rect class="BoundingBox" stroke="none" fill="none" x="10747" y="3662" width="854" height="620"/>
        <path fill="none" stroke="rgb(22,67,38)" stroke-width="8" stroke-linejoin="round" stroke-linecap="round" d="M 10751,4277 L 11595,4277 11595,3666 10751,3666 10751,4277 Z"/>
       </g>
      </g>
      <g class="com.sun.star.drawing.PolyPolygonShape">
       <g id="id90">
        <rect class="BoundingBox" stroke="none" fill="none" x="11590" y="3662" width="854" height="620"/>
        <path fill="none" stroke="rgb(22,67,38)" stroke-width="8" stroke-linejoin="round" stroke-linecap="round" d="M 11594,4277 L 12438,4277 12438,3666 11594,3666 11594,4277 Z"/>
       </g>
      </g>
      <g class="com.sun.star.drawing.PolyPolygonShape">
       <g id="id91">
        <rect class="BoundingBox" stroke="none" fill="none" x="12432" y="3662" width="853" height="620"/>
        <path fill="none" stroke="rgb(22,67,38)" stroke-width="8" stroke-linejoin="round" stroke-linecap="round" d="M 12436,4277 L 13280,4277 13280,3666 12436,3666 12436,4277 Z"/>
       </g>
      </g>
      <g class="com.sun.star.drawing.PolyPolygonShape">
       <g id="id92">
        <rect class="BoundingBox" stroke="none" fill="none" x="13275" y="3662" width="854" height="620"/>
        <path fill="none" stroke="rgb(22,67,38)" stroke-width="8" stroke-linejoin="round" stroke-linecap="round" d="M 13279,4277 L 14123,4277 14123,3666 13279,3666 13279,4277 Z"/>
       </g>
      </g>
      <g class="com.sun.star.drawing.PolyPolygonShape">
       <g id="id93">
        <rect class="BoundingBox" stroke="none" fill="none" x="14120" y="3662" width="854" height="620"/>
        <path fill="none" stroke="rgb(22,67,38)" stroke-width="8" stroke-linejoin="round" stroke-linecap="round" d="M 14124,4277 L 14968,4277 14968,3666 14124,3666 14124,4277 Z"/>
       </g>
      </g>
      <g class="com.sun.star.drawing.PolyPolygonShape">
       <g id="id94">
        <rect class="BoundingBox" stroke="none" fill="none" x="14962" y="3662" width="853" height="620"/>
        <path fill="none" stroke="rgb(22,67,38)" stroke-width="8" stroke-linejoin="round" stroke-linecap="round" d="M 14966,4277 L 15810,4277 15810,3666 14966,3666 14966,4277 Z"/>
       </g>
      </g>
      <g class="com.sun.star.drawing.PolyPolygonShape">
       <g id="id95">
        <rect class="BoundingBox" stroke="none" fill="none" x="15805" y="3662" width="853" height="620"/>
        <path fill="none" stroke="rgb(22,67,38)" stroke-width="8" stroke-linejoin="round" stroke-linecap="round" d="M 15809,4277 L 16653,4277 16653,3666 15809,3666 15809,4277 Z"/>
       </g>
      </g>
      <g class="com.sun.star.drawing.PolyPolygonShape">
       <g id="id96">
        <rect class="BoundingBox" stroke="none" fill="none" x="16647" y="3662" width="853" height="620"/>
        <path fill="none" stroke="rgb(22,67,38)" stroke-width="8" stroke-linejoin="round" stroke-linecap="round" d="M 16651,4277 L 17495,4277 17495,3666 16651,3666 16651,4277 Z"/>
       </g>
      </g>
      <g class="Group">
       <g class="com.sun.star.drawing.PolyPolygonShape">
        <g id="id97">
         <rect class="BoundingBox" stroke="none" fill="none" x="2312" y="1832" width="853" height="620"/>
         <path fill="none" stroke="rgb(22,67,38)" stroke-width="8" stroke-linejoin="round" stroke-linecap="round" d="M 2316,2447 L 3160,2447 3160,1836 2316,1836 2316,2447 Z"/>
        </g>
       </g>
       <g class="com.sun.star.drawing.TextShape">
        <g id="id98">
         <rect class="BoundingBox" stroke="none" fill="none" x="2316" y="1761" width="844" height="761"/>
         <text class="TextShape"><tspan class="TextParagraph" font-family="Courier New" font-size="353px" font-weight="400"><tspan class="TextPosition" x="2632" y="2274"><tspan fill="rgb(22,67,38)" stroke="none">1</tspan></tspan></tspan></text>
        </g>
       </g>
      </g>
      <g class="Group">
       <g class="com.sun.star.drawing.PolyPolygonShape">
        <g id="id99">
         <rect class="BoundingBox" stroke="none" fill="none" x="3155" y="1832" width="854" height="620"/>
         <path fill="none" stroke="rgb(22,67,38)" stroke-width="8" stroke-linejoin="round" stroke-linecap="round" d="M 3159,2447 L 4003,2447 4003,1836 3159,1836 3159,2447 Z"/>
        </g>
       </g>
       <g class="com.sun.star.drawing.TextShape">
        <g id="id100">
         <rect class="BoundingBox" stroke="none" fill="none" x="3159" y="1761" width="844" height="761"/>
         <text class="TextShape"><tspan class="TextParagraph" font-family="Courier New" font-size="353px" font-weight="400"><tspan class="TextPosition" x="3475" y="2274"><tspan fill="rgb(22,67,38)" stroke="none">2</tspan></tspan></tspan></text>
        </g>
       </g>
      </g>
      <g class="Group">
       <g class="com.sun.star.drawing.PolyPolygonShape">
        <g id="id101">
         <rect class="BoundingBox" stroke="none" fill="none" x="2312" y="2442" width="853" height="620"/>
         <path fill="none" stroke="rgb(22,67,38)" stroke-width="8" stroke-linejoin="round" stroke-linecap="round" d="M 2316,3057 L 3160,3057 3160,2446 2316,2446 2316,3057 Z"/>
        </g>
       </g>
       <g class="com.sun.star.drawing.TextShape">
        <g id="id102">
         <rect class="BoundingBox" stroke="none" fill="none" x="2316" y="2371" width="844" height="761"/>
         <text class="TextShape"><tspan class="TextParagraph" font-family="Courier New" font-size="353px" font-weight="400"><tspan class="TextPosition" x="2526" y="2884"><tspan fill="rgb(22,67,38)" stroke="none">18</tspan></tspan></tspan></text>
        </g>
       </g>
      </g>
      <g class="Group">
       <g class="com.sun.star.drawing.PolyPolygonShape">
        <g id="id103">
         <rect class="BoundingBox" stroke="none" fill="none" x="3155" y="2442" width="854" height="620"/>
         <path fill="none" stroke="rgb(22,67,38)" stroke-width="8" stroke-linejoin="round" stroke-linecap="round" d="M 3159,3057 L 4003,3057 4003,2446 3159,2446 3159,3057 Z"/>
        </g>
       </g>
       <g class="com.sun.star.drawing.TextShape">
        <g id="id104">
         <rect class="BoundingBox" stroke="none" fill="none" x="3159" y="2371" width="844" height="761"/>
         <text class="TextShape"><tspan class="TextParagraph" font-family="Courier New" font-size="353px" font-weight="400"><tspan class="TextPosition" x="3475" y="2884"><tspan fill="rgb(22,67,38)" stroke="none">⊥</tspan></tspan></tspan></text>
        </g>
       </g>
      </g>
      <g class="Group">
       <g class="com.sun.star.drawing.PolyPolygonShape">
        <g id="id105">
         <rect class="BoundingBox" stroke="none" fill="none" x="4000" y="1832" width="853" height="620"/>
         <path fill="none" stroke="rgb(22,67,38)" stroke-width="8" stroke-linejoin="round" stroke-linecap="round" d="M 4004,2447 L 4848,2447 4848,1836 4004,1836 4004,2447 Z"/>
        </g>
       </g>
       <g class="com.sun.star.drawing.TextShape">
        <g id="id106">
         <rect class="BoundingBox" stroke="none" fill="none" x="4004" y="1761" width="844" height="761"/>
         <text class="TextShape"><tspan class="TextParagraph" font-family="Courier New" font-size="353px" font-weight="400"><tspan class="TextPosition" x="4320" y="2274"><tspan fill="rgb(22,67,38)" stroke="none">3</tspan></tspan></tspan></text>
        </g>
       </g>
      </g>
      <g class="Group">
       <g class="com.sun.star.drawing.PolyPolygonShape">
        <g id="id107">
         <rect class="BoundingBox" stroke="none" fill="none" x="4842" y="1832" width="853" height="620"/>
         <path fill="none" stroke="rgb(22,67,38)" stroke-width="8" stroke-linejoin="round" stroke-linecap="round" d="M 4846,2447 L 5690,2447 5690,1836 4846,1836 4846,2447 Z"/>
        </g>
       </g>
       <g class="com.sun.star.drawing.TextShape">
        <g id="id108">
         <rect class="BoundingBox" stroke="none" fill="none" x="4846" y="1761" width="844" height="761"/>
         <text class="TextShape"><tspan class="TextParagraph" font-family="Courier New" font-size="353px" font-weight="400"><tspan class="TextPosition" x="5162" y="2274"><tspan fill="rgb(22,67,38)" stroke="none">4</tspan></tspan></tspan></text>
        </g>
       </g>
      </g>
      <g class="Group">
       <g class="com.sun.star.drawing.PolyPolygonShape">
        <g id="id109">
         <rect class="BoundingBox" stroke="none" fill="none" x="4000" y="2442" width="853" height="620"/>
         <path fill="none" stroke="rgb(22,67,38)" stroke-width="8" stroke-linejoin="round" stroke-linecap="round" d="M 4004,3057 L 4848,3057 4848,2446 4004,2446 4004,3057 Z"/>
        </g>
       </g>
       <g class="com.sun.star.drawing.TextShape">
        <g id="id110">
         <rect class="BoundingBox" stroke="none" fill="none" x="4004" y="2371" width="844" height="761"/>
         <text class="TextShape"><tspan class="TextParagraph" font-family="Courier New" font-size="353px" font-weight="400"><tspan class="TextPosition" x="4320" y="2884"><tspan fill="rgb(22,67,38)" stroke="none">⊥</tspan></tspan></tspan></text>
        </g>
       </g>
      </g>
      <g class="Group">
       <g class="com.sun.star.drawing.PolyPolygonShape">
        <g id="id111">
         <rect class="BoundingBox" stroke="none" fill="none" x="4842" y="2442" width="853" height="620"/>
         <path fill="none" stroke="rgb(22,67,38)" stroke-width="8" stroke-linejoin="round" stroke-linecap="round" d="M 4846,3057 L 5690,3057 5690,2446 4846,2446 4846,3057 Z"/>
        </g>
       </g>
       <g class="com.sun.star.drawing.TextShape">
        <g id="id112">
         <rect class="BoundingBox" stroke="none" fill="none" x="4846" y="2371" width="844" height="761"/>
         <text class="TextShape"><tspan class="TextParagraph" font-family="Courier New" font-size="353px" font-weight="400"><tspan class="TextPosition" x="5162" y="2884"><tspan fill="rgb(22,67,38)" stroke="none">⊥</tspan></tspan></tspan></text>
        </g>
       </g>
      </g>
      <g class="Group">
       <g class="com.sun.star.drawing.PolyPolygonShape">
        <g id="id113">
         <rect class="BoundingBox" stroke="none" fill="none" x="5685" y="1832" width="854" height="620"/>
         <path fill="none" stroke="rgb(22,67,38)" stroke-width="8" stroke-linejoin="round" stroke-linecap="round" d="M 5689,2447 L 6533,2447 6533,1836 5689,1836 5689,2447 Z"/>
        </g>
       </g>
       <g class="com.sun.star.drawing.TextShape">
        <g id="id114">
         <rect class="BoundingBox" stroke="none" fill="none" x="5689" y="1761" width="844" height="761"/>
         <text class="TextShape"><tspan class="TextParagraph" font-family="Courier New" font-size="353px" font-weight="400"><tspan class="TextPosition" x="6005" y="2274"><tspan fill="rgb(22,67,38)" stroke="none">5</tspan></tspan></tspan></text>
        </g>
       </g>
      </g>
      <g class="Group">
       <g class="com.sun.star.drawing.PolyPolygonShape">
        <g id="id115">
         <rect class="BoundingBox" stroke="none" fill="none" x="6527" y="1832" width="854" height="620"/>
         <path fill="none" stroke="rgb(22,67,38)" stroke-width="8" stroke-linejoin="round" stroke-linecap="round" d="M 6531,2447 L 7375,2447 7375,1836 6531,1836 6531,2447 Z"/>
        </g>
       </g>
       <g class="com.sun.star.drawing.TextShape">
        <g id="id116">
         <rect class="BoundingBox" stroke="none" fill="none" x="6531" y="1761" width="844" height="761"/>
         <text class="TextShape"><tspan class="TextParagraph" font-family="Courier New" font-size="353px" font-weight="400"><tspan class="TextPosition" x="6847" y="2274"><tspan fill="rgb(22,67,38)" stroke="none">6</tspan></tspan></tspan></text>
        </g>
       </g>
      </g>
      <g class="Group">
       <g class="com.sun.star.drawing.PolyPolygonShape">
        <g id="id117">
         <rect class="BoundingBox" stroke="none" fill="none" x="5685" y="2442" width="854" height="620"/>
         <path fill="none" stroke="rgb(22,67,38)" stroke-width="8" stroke-linejoin="round" stroke-linecap="round" d="M 5689,3057 L 6533,3057 6533,2446 5689,2446 5689,3057 Z"/>
        </g>
       </g>
       <g class="com.sun.star.drawing.TextShape">
        <g id="id118">
         <rect class="BoundingBox" stroke="none" fill="none" x="5689" y="2371" width="844" height="761"/>
         <text class="TextShape"><tspan class="TextParagraph" font-family="Courier New" font-size="353px" font-weight="400"><tspan class="TextPosition" x="5830" y="2884"><tspan fill="rgb(22,67,38)" stroke="none">14</tspan></tspan></tspan></text>
        </g>
       </g>
      </g>
      <g class="Group">
       <g class="com.sun.star.drawing.PolyPolygonShape">
        <g id="id119">
         <rect class="BoundingBox" stroke="none" fill="none" x="6527" y="2442" width="854" height="620"/>
         <path fill="none" stroke="rgb(22,67,38)" stroke-width="8" stroke-linejoin="round" stroke-linecap="round" d="M 6531,3057 L 7375,3057 7375,2446 6531,2446 6531,3057 Z"/>
        </g>
       </g>
       <g class="com.sun.star.drawing.TextShape">
        <g id="id120">
         <rect class="BoundingBox" stroke="none" fill="none" x="6531" y="2371" width="844" height="761"/>
         <text class="TextShape"><tspan class="TextParagraph" font-family="Courier New" font-size="353px" font-weight="400"><tspan class="TextPosition" x="6847" y="2884"><tspan fill="rgb(22,67,38)" stroke="none">4</tspan></tspan></tspan></text>
        </g>
       </g>
      </g>
      <g class="com.sun.star.drawing.PolyPolygonShape">
       <g id="id121">
        <rect class="BoundingBox" stroke="none" fill="none" x="2312" y="3052" width="853" height="621"/>
        <path fill="none" stroke="rgb(22,67,38)" stroke-width="8" stroke-linejoin="round" stroke-linecap="round" d="M 2316,3667 L 3160,3667 3160,3056 2316,3056 2316,3667 Z"/>
       </g>
      </g>
      <g class="Group">
       <g class="com.sun.star.drawing.PolyPolygonShape">
        <g id="id122">
         <rect class="BoundingBox" stroke="none" fill="none" x="3155" y="3052" width="854" height="621"/>
         <path fill="none" stroke="rgb(22,67,38)" stroke-width="8" stroke-linejoin="round" stroke-linecap="round" d="M 3159,3667 L 4003,3667 4003,3056 3159,3056 3159,3667 Z"/>
        </g>
       </g>
       <g class="com.sun.star.drawing.TextShape">
        <g id="id123">
         <rect class="BoundingBox" stroke="none" fill="none" x="3159" y="2981" width="844" height="761"/>
         <text class="TextShape"><tspan class="TextParagraph" font-family="Courier New" font-size="353px" font-weight="400"><tspan class="TextPosition" x="3300" y="3494"><tspan fill="rgb(22,67,38)" stroke="none">17</tspan></tspan></tspan></text>
        </g>
       </g>
      </g>
      <g class="com.sun.star.drawing.PolyPolygonShape">
       <g id="id124">
        <rect class="BoundingBox" stroke="none" fill="none" x="4000" y="3052" width="853" height="621"/>
        <path fill="none" stroke="rgb(22,67,38)" stroke-width="8" stroke-linejoin="round" stroke-linecap="round" d="M 4004,3667 L 4848,3667 4848,3056 4004,3056 4004,3667 Z"/>
       </g>
      </g>
      <g class="com.sun.star.drawing.PolyPolygonShape">
       <g id="id125">
        <rect class="BoundingBox" stroke="none" fill="none" x="4842" y="3052" width="853" height="621"/>
        <path fill="none" stroke="rgb(22,67,38)" stroke-width="8" stroke-linejoin="round" stroke-linecap="round" d="M 4846,3667 L 5690,3667 5690,3056 4846,3056 4846,3667 Z"/>
       </g>
      </g>
      <g class="com.sun.star.drawing.PolyPolygonShape">
       <g id="id126">
        <rect class="BoundingBox" stroke="none" fill="none" x="5685" y="3052" width="854" height="621"/>
        <path fill="none" stroke="rgb(22,67,38)" stroke-width="8" stroke-linejoin="round" stroke-linecap="round" d="M 5689,3667 L 6533,3667 6533,3056 5689,3056 5689,3667 Z"/>
       </g>
      </g>
      <g class="com.sun.star.drawing.PolyPolygonShape">
       <g id="id127">
        <rect class="BoundingBox" stroke="none" fill="none" x="6527" y="3052" width="854" height="621"/>
        <path fill="none" stroke="rgb(22,67,38)" stroke-width="8" stroke-linejoin="round" stroke-linecap="round" d="M 6531,3667 L 7375,3667 7375,3056 6531,3056 6531,3667 Z"/>
       </g>
      </g>
      <g class="com.sun.star.drawing.PolyPolygonShape">
       <g id="id128">
        <rect class="BoundingBox" stroke="none" fill="none" x="2312" y="3662" width="853" height="620"/>
        <path fill="none" stroke="rgb(22,67,38)" stroke-width="8" stroke-linejoin="round" stroke-linecap="round" d="M 2316,4277 L 3160,4277 3160,3666 2316,3666 2316,4277 Z"/>
       </g>
      </g>
      <g class="com.sun.star.drawing.PolyPolygonShape">
       <g id="id129">
        <rect class="BoundingBox" stroke="none" fill="none" x="3155" y="3662" width="854" height="620"/>
        <path fill="none" stroke="rgb(22,67,38)" stroke-width="8" stroke-linejoin="round" stroke-linecap="round" d="M 3159,4277 L 4003,4277 4003,3666 3159,3666 3159,4277 Z"/>
       </g>
      </g>
      <g class="Group">
       <g class="com.sun.star.drawing.PolyPolygonShape">
        <g id="id130">
         <rect class="BoundingBox" stroke="none" fill="none" x="4000" y="3662" width="853" height="620"/>
         <path fill="none" stroke="rgb(22,67,38)" stroke-width="8" stroke-linejoin="round" stroke-linecap="round" d="M 4004,4277 L 4848,4277 4848,3666 4004,3666 4004,4277 Z"/>
        </g>
       </g>
       <g class="com.sun.star.drawing.TextShape">
        <g id="id131">
         <rect class="BoundingBox" stroke="none" fill="none" x="4004" y="3591" width="844" height="761"/>
         <text class="TextShape"><tspan class="TextParagraph" font-family="Courier New" font-size="353px" font-weight="400"><tspan class="TextPosition" x="4145" y="4104"><tspan fill="rgb(22,67,38)" stroke="none">14</tspan></tspan></tspan></text>
        </g>
       </g>
      </g>
      <g class="Group">
       <g class="com.sun.star.drawing.PolyPolygonShape">
        <g id="id132">
         <rect class="BoundingBox" stroke="none" fill="none" x="4842" y="3662" width="853" height="620"/>
         <path fill="none" stroke="rgb(22,67,38)" stroke-width="8" stroke-linejoin="round" stroke-linecap="round" d="M 4846,4277 L 5690,4277 5690,3666 4846,3666 4846,4277 Z"/>
        </g>
       </g>
       <g class="com.sun.star.drawing.TextShape">
        <g id="id133">
         <rect class="BoundingBox" stroke="none" fill="none" x="4846" y="3591" width="844" height="761"/>
         <text class="TextShape"><tspan class="TextParagraph" font-family="Courier New" font-size="353px" font-weight="400"><tspan class="TextPosition" x="5162" y="4104"><tspan fill="rgb(22,67,38)" stroke="none">1</tspan></tspan></tspan></text>
        </g>
       </g>
      </g>
      <g class="Group">
       <g class="com.sun.star.drawing.PolyPolygonShape">
        <g id="id134">
         <rect class="BoundingBox" stroke="none" fill="none" x="5685" y="3662" width="854" height="620"/>
         <path fill="none" stroke="rgb(22,67,38)" stroke-width="8" stroke-linejoin="round" stroke-linecap="round" d="M 5689,4277 L 6533,4277 6533,3666 5689,3666 5689,4277 Z"/>
        </g>
       </g>
       <g class="com.sun.star.drawing.TextShape">
        <g id="id135">
         <rect class="BoundingBox" stroke="none" fill="none" x="5689" y="3591" width="844" height="761"/>
         <text class="TextShape"><tspan class="TextParagraph" font-family="Courier New" font-size="353px" font-weight="400"><tspan class="TextPosition" x="5830" y="4104"><tspan fill="rgb(22,67,38)" stroke="none">15</tspan></tspan></tspan></text>
        </g>
       </g>
      </g>
      <g class="Group">
       <g class="com.sun.star.drawing.PolyPolygonShape">
        <g id="id136">
         <rect class="BoundingBox" stroke="none" fill="none" x="6527" y="3662" width="854" height="620"/>
         <path fill="none" stroke="rgb(22,67,38)" stroke-width="8" stroke-linejoin="round" stroke-linecap="round" d="M 6531,4277 L 7375,4277 7375,3666 6531,3666 6531,4277 Z"/>
        </g>
       </g>
       <g class="com.sun.star.drawing.TextShape">
        <g id="id137">
         <rect class="BoundingBox" stroke="none" fill="none" x="6531" y="3591" width="844" height="761"/>
         <text class="TextShape"><tspan class="TextParagraph" font-family="Courier New" font-size="353px" font-weight="400"><tspan class="TextPosition" x="6847" y="4104"><tspan fill="rgb(22,67,38)" stroke="none">4</tspan></tspan></tspan></text>
        </g>
       </g>
      </g>
      <g class="com.sun.star.drawing.TextShape">
       <g id="id138">
        <rect class="BoundingBox" stroke="none" fill="none" x="2313" y="525" width="1094" height="857"/>
        <text class="TextShape"><tspan class="TextParagraph" font-family="Courier New" font-size="423px" font-weight="700"><tspan class="TextPosition" x="2606" y="1113"><tspan fill="rgb(22,67,38)" stroke="none">SA</tspan></tspan></tspan></text>
       </g>
      </g>
      <g class="com.sun.star.drawing.TextShape">
       <g id="id139">
        <rect class="BoundingBox" stroke="none" fill="none" x="663" y="3052" width="1501" height="659"/>
        <text class="TextShape"><tspan class="TextParagraph" font-family="Times New Roman, serif" font-size="282px" font-weight="400"><tspan class="TextPosition" x="994" y="3510"><tspan fill="rgb(22,67,38)" stroke="none">L types</tspan></tspan></tspan></text>
       </g>
      </g>
      <g class="com.sun.star.drawing.TextShape">
       <g id="id140">
        <rect class="BoundingBox" stroke="none" fill="none" x="663" y="3642" width="1501" height="659"/>
        <text class="TextShape"><tspan class="TextParagraph" font-family="Times New Roman, serif" font-size="282px" font-weight="400"><tspan class="TextPosition" x="996" y="4100"><tspan fill="rgb(22,67,38)" stroke="none">S types</tspan></tspan></tspan></text>
       </g>
      </g>
      <g class="com.sun.star.drawing.TextShape">
       <g id="id141">
        <rect class="BoundingBox" stroke="none" fill="none" x="683" y="1216" width="1381" height="659"/>
        <text class="TextShape"><tspan class="TextParagraph" font-family="Times New Roman, serif" font-size="282px" font-weight="400"><tspan class="TextPosition" x="935" y="1674"><tspan fill="rgb(22,67,38)" stroke="none">buckets</tspan></tspan></tspan></text>
       </g>
      </g>
      <g class="com.sun.star.drawing.TextShape">
       <g id="id142">
        <rect class="BoundingBox" stroke="none" fill="none" x="763" y="2419" width="1551" height="659"/>
        <text class="TextShape"><tspan class="TextParagraph" font-family="Times New Roman, serif" font-size="282px" font-weight="400"><tspan class="TextPosition" x="1246" y="2877"><tspan fill="rgb(22,67,38)" stroke="none">LMS</tspan></tspan></tspan></text>
       </g>
      </g>
      <g class="com.sun.star.drawing.TextShape">
       <g id="id143">
        <rect class="BoundingBox" stroke="none" fill="none" x="13827" y="614" width="3670" height="659"/>
        <text class="TextShape"><tspan class="TextParagraph" font-family="Times New Roman, serif" font-size="282px" font-weight="400"><tspan class="TextPosition" x="15569" y="1072"><tspan fill="rgb(22,67,38)" stroke="none">f)</tspan></tspan></tspan></text>
       </g>
      </g>
     </g>
    </g>
   </g>
  </g>
 </g>
</svg>